Cyclistic Case Study
…
### average of the trips by hour
cyclistic_trip_data %>%
  group_by(user_type, start_hour) %>%
  summarise(mean(trip_length)/60)

## `summarise()` has grouped output by 'user_type'. You can override using the `.groups` argument.

## # A tibble: 48 x 3
## # Groups:   user_type [2]
##    user_type start_hour `mean(trip_length)/60`
##    <chr>     <chr>                       <dbl>
##  1 casual    00                           39.7
##  2 casual    01                           45.8
##  3 casual    02                           49.1
##  4 casual    03                           54.3
##  5 casual    04                           56.4
##  6 casual    05                           29.6
##  7 casual    06                           27.2
##  8 casual    07                           22.6
##  9 casual    08                           25.4
## 10 casual    09                           30.4
## # ... with 38 more rows
…
